<svg width="18" height="9" viewBox="0 0 18 9" xmlns="http://www.w3.org/2000/svg">
<path d="M17.9045 8.12799C17.8827 8.08682 17.8624 8.05268 17.8435 8.02532C17.5312 7.5324 16.9345 6.92739 16.0535 6.21009L16.0349 6.19367L16.0256 6.18561L16.0162 6.17736H16.0067C15.6069 5.84335 15.3537 5.61877 15.2477 5.50379C15.0537 5.28476 15.0102 5.06305 15.1163 4.83841C15.1912 4.66869 15.4726 4.31026 15.9597 3.76263C16.216 3.4724 16.419 3.2398 16.5688 3.06455C17.6498 1.80515 18.1185 1.00038 17.9747 0.649913L17.9188 0.568014C17.8813 0.518708 17.7845 0.473602 17.6285 0.432466C17.4721 0.391416 17.2722 0.384627 17.0285 0.411984L14.3295 0.428324C14.2858 0.414746 14.2233 0.416011 14.142 0.432466C14.0607 0.44892 14.0201 0.457177 14.0201 0.457177L13.9731 0.477745L13.9358 0.502455C13.9046 0.518794 13.8702 0.547533 13.8327 0.588611C13.7954 0.629546 13.7642 0.677586 13.7392 0.732329C13.4454 1.39485 13.1113 2.01083 12.7363 2.58024C12.5051 2.91977 12.2928 3.21402 12.0989 3.46317C11.9053 3.71223 11.7428 3.89573 11.6117 4.01336C11.4804 4.1311 11.3619 4.22543 11.2555 4.29668C11.1492 4.36796 11.0681 4.39808 11.012 4.38707C10.9557 4.37605 10.9027 4.36512 10.8525 4.35419C10.7651 4.30488 10.6947 4.23782 10.6417 4.15296C10.5885 4.0681 10.5526 3.96129 10.5339 3.83262C10.5153 3.70386 10.5042 3.59311 10.5011 3.49999C10.4982 3.40699 10.4995 3.27544 10.5058 3.10572C10.5123 2.93591 10.5153 2.82101 10.5153 2.76078C10.5153 2.55268 10.5199 2.32683 10.5292 2.08318C10.5386 1.83953 10.5463 1.64647 10.5527 1.50425C10.559 1.36189 10.562 1.21126 10.562 1.05247C10.562 0.893681 10.551 0.76915 10.5292 0.678765C10.5076 0.588496 10.4746 0.500873 10.431 0.415925C10.3872 0.331064 10.3231 0.265419 10.2389 0.218817C10.1546 0.172272 10.0497 0.135336 9.92496 0.107893C9.59379 0.0422185 9.17208 0.00669179 8.65965 0.00116861C7.4976 -0.00976269 6.75093 0.0559976 6.41979 0.198363C6.28859 0.258514 6.16986 0.3407 6.0637 0.444663C5.95121 0.565166 5.93552 0.630927 6.01673 0.641743C6.39166 0.690963 6.65708 0.808704 6.8133 0.994853L6.86959 1.09349C6.91338 1.16466 6.9571 1.29066 7.00086 1.47131C7.04455 1.65197 7.07275 1.85181 7.08516 2.07072C7.11634 2.47049 7.11634 2.8127 7.08516 3.09737C7.05387 3.38216 7.02433 3.60387 6.99613 3.76266C6.96794 3.92145 6.92579 4.05012 6.86959 4.14865C6.8133 4.2472 6.77584 4.30744 6.75707 4.3293C6.73832 4.35117 6.7227 4.36494 6.71029 4.37035C6.62908 4.39762 6.54462 4.41152 6.45721 4.41152C6.36966 4.41152 6.26351 4.37314 6.13857 4.29645C6.01367 4.21976 5.88405 4.11442 5.74969 3.98025C5.61534 3.84605 5.46382 3.65852 5.29507 3.41763C5.12644 3.17674 4.95148 2.89204 4.77029 2.56352L4.62038 2.32528C4.52666 2.17201 4.39864 1.94884 4.23619 1.65597C4.07364 1.36298 3.92996 1.07957 3.80506 0.805799C3.75514 0.690819 3.68013 0.603282 3.58018 0.543045L3.53327 0.518334C3.50209 0.496472 3.45203 0.473257 3.38336 0.448518C3.31459 0.423807 3.24283 0.406087 3.1678 0.395184L0.599913 0.411524C0.337509 0.411524 0.159465 0.46362 0.0657161 0.567669L0.0281968 0.616888C0.00945366 0.644303 0 0.688086 0 0.748352C0 0.808589 0.0187432 0.882519 0.0562624 0.970056C0.431126 1.74215 0.838782 2.48677 1.27923 3.20404C1.71968 3.92131 2.10242 4.49908 2.42723 4.93685C2.7521 5.37494 3.08324 5.7884 3.42065 6.17704C3.75806 6.56582 3.9814 6.81497 4.09068 6.92442C4.20008 7.03408 4.28602 7.11607 4.34849 7.17081L4.58282 7.36789C4.73277 7.49932 4.95296 7.65673 5.2435 7.84012C5.5341 8.02362 5.85582 8.20428 6.20882 8.38237C6.56189 8.56018 6.97263 8.70528 7.44128 8.81749C7.90985 8.92983 8.36593 8.97491 8.80956 8.95316H9.88734C10.1059 8.93662 10.2715 8.87638 10.3841 8.77242L10.4214 8.73125C10.4465 8.69857 10.4699 8.6478 10.4916 8.57948C10.5135 8.51104 10.5244 8.43565 10.5244 8.35363C10.518 8.11824 10.5385 7.90608 10.5852 7.7172C10.6319 7.52838 10.6852 7.38601 10.7447 7.29013C10.8042 7.19434 10.8714 7.11351 10.9461 7.04798C11.021 6.9823 11.0744 6.94252 11.1057 6.92882C11.1368 6.91505 11.1617 6.9057 11.1804 6.90009C11.3304 6.8563 11.5068 6.89871 11.7101 7.02749C11.9132 7.15617 12.1037 7.31504 12.2818 7.50387C12.4599 7.69286 12.6739 7.9049 12.9237 8.1403C13.1738 8.37578 13.3924 8.55083 13.5798 8.66598L13.7671 8.76453C13.8922 8.8303 14.0547 8.89053 14.2547 8.94528C14.4543 8.99999 14.6292 9.01368 14.7793 8.98633L17.1784 8.95353C17.4157 8.95353 17.6004 8.9191 17.7313 8.85078C17.8626 8.78234 17.9405 8.70694 17.9657 8.62493C17.9908 8.54283 17.9921 8.44969 17.9704 8.34555C17.9482 8.24167 17.9263 8.16904 17.9045 8.12799Z"/>
</svg>
