<svg width='100' height='110' viewBox='0 0 100 110' fill='none' xmlns='http://www.w3.org/2000/svg'>
<path d='M41.1989 2.35773C46.6451 -0.785909 53.3549 -0.785908 58.8011 2.35773L91.1989 21.0586C96.6451 24.2022 100 30.0119 100 36.2992V73.7009C100 79.9881 96.6451 85.7978 91.1989 88.9414L58.8011 107.642C53.3549 110.786 46.6451 110.786 41.1989 107.642L8.80107 88.9414C3.35495 85.7978 0 79.9881 0 73.7009V36.2992C0 30.0119 3.35495 24.2022 8.80107 21.0586L41.1989 2.35773Z' fill='#EEF4FB'/>
<path d='M45.7755 30.1146C48.3896 28.6285 51.6104 28.6285 54.2245 30.1146L69.7755 38.955C72.3896 40.441 74 43.1874 74 46.1596V63.8404C74 66.8126 72.3896 69.559 69.7755 71.045L54.2245 79.8854C51.6104 81.3715 48.3896 81.3715 45.7755 79.8854L30.2245 71.045C27.6104 69.559 26 66.8126 26 63.8404V46.1596C26 43.1874 27.6104 40.441 30.2245 38.955L45.7755 30.1146Z' fill='white'/>
</svg>
