<svg width="26" height="24" viewBox="0 0 26 24" fill="none" xmlns="http://www.w3.org/2000/svg">
<path d="M24.8696 4.04494H19.2174V0.808989C19.2174 0.350562 18.963 0 18.5109 0H7.48913C7.0087 0 6.78261 0.350562 6.78261 0.808989V4.04494H1.13043C0.508696 4.04494 0 4.50338 0 5.09664V17.4742C0 18.0674 0.508696 18.6067 1.13043 18.6067H5.28478L4.60652 22.8135C4.55 23.0831 4.63478 23.4067 4.83261 23.6225C5.03043 23.8382 5.28478 24 5.59565 24H20.4326C20.7152 24 20.9978 23.8112 21.1957 23.5955C21.3935 23.3798 21.4783 23.1101 21.4217 22.8404L20.7435 18.6067H24.8696C25.4913 18.6067 26 18.0674 26 17.4742V5.09664C26 4.50338 25.4913 4.04494 24.8696 4.04494ZM8.47826 1.61798H17.5217V4.04494H8.47826V1.61798ZM6.72609 22.1124L7.8 15.3708H18.2L19.2739 22.1124H6.72609ZM23.7391 16.4494H20.3761L20.0087 14.2382C19.9239 13.7798 19.5283 13.4831 19.0196 13.4831H6.95217C6.47174 13.4831 6.04783 13.7798 5.96304 14.2382L5.59565 16.4494H2.26087V6.20225H23.7391V16.4494ZM5.17174 8.89888C5.17174 8.44045 5.53913 8.08989 6.01956 8.08989H8.67609C9.15652 8.08989 9.52391 8.44045 9.52391 8.89888C9.52391 9.3573 9.15652 9.70786 8.67609 9.70786H6.01956C5.56739 9.70786 5.17174 9.3573 5.17174 8.89888Z" fill="#A02140"/>
</svg>
