<svg width="62" height="62" viewBox="0 0 62 62" fill="none" xmlns="http://www.w3.org/2000/svg">
<path d="M57.35 62H4.65C2.0863 62 0 59.9137 0 57.35V4.65C0 2.0863 2.0863 0 4.65 0H57.35C59.9137 0 62 2.0863 62 4.65V57.35C62 59.9137 59.9137 62 57.35 62ZM4.65 2.06667C3.22607 2.06667 2.06667 3.22503 2.06667 4.65V57.35C2.06667 58.775 3.22607 59.9333 4.65 59.9333H57.35C58.775 59.9333 59.9333 58.775 59.9333 57.35V4.65C59.9333 3.22503 58.7739 2.06667 57.35 2.06667H4.65Z" fill="#A02140"/>
<path d="M9.29995 10.3335H5.16662C4.59622 10.3335 4.13329 9.87156 4.13329 9.30013V5.1668C4.13329 4.59536 4.59622 4.13346 5.16662 4.13346H9.29995C9.87035 4.13346 10.3333 4.59536 10.3333 5.1668V9.30013C10.3333 9.87156 9.87035 10.3335 9.29995 10.3335ZM6.19995 8.2668H8.26662V6.20013H6.19995V8.2668Z" fill="#A02140"/>
<path d="M17.5667 10.3335H13.4333C12.8629 10.3335 12.4 9.87156 12.4 9.30013V5.1668C12.4 4.59536 12.8629 4.13346 13.4333 4.13346H17.5667C18.1371 4.13346 18.6 4.59536 18.6 5.1668V9.30013C18.6 9.87156 18.1371 10.3335 17.5667 10.3335ZM14.4667 8.2668H16.5333V6.20013H14.4667V8.2668Z" fill="#A02140"/>
<path d="M25.8334 10.3335H21.7001C21.1297 10.3335 20.6667 9.87156 20.6667 9.30013V5.1668C20.6667 4.59536 21.1297 4.13346 21.7001 4.13346H25.8334C26.4038 4.13346 26.8667 4.59536 26.8667 5.1668V9.30013C26.8667 9.87156 26.4038 10.3335 25.8334 10.3335ZM22.7334 8.2668H24.8001V6.20013H22.7334V8.2668Z" fill="#A02140"/>
<path d="M60.9667 14.4667H1.03333C0.462933 14.4667 0 14.0048 0 13.4333V4.65C0 2.0863 2.0863 0 4.65 0H57.35C59.9137 0 62 2.0863 62 4.65V13.4333C62 14.0048 61.5371 14.4667 60.9667 14.4667ZM2.06667 12.4H59.9333V4.65C59.9333 3.22503 58.7739 2.06667 57.35 2.06667H4.65C3.22607 2.06667 2.06667 3.22503 2.06667 4.65V12.4Z" fill="#A02140"/>
<path d="M7.75006 36.1667H6.20006C5.62966 36.1667 5.16672 35.7048 5.16672 35.1333V33.5833C5.16672 33.0119 5.62966 32.55 6.20006 32.55C6.77046 32.55 7.23339 33.0119 7.23339 33.5833V34.1H7.75006C8.32046 34.1 8.78339 34.5619 8.78339 35.1333C8.78339 35.7048 8.32046 36.1667 7.75006 36.1667Z" fill="#A02140"/>
<path d="M6.20006 29.7312C5.62966 29.7312 5.16672 29.2693 5.16672 28.6978V25.0336C5.16672 24.4622 5.62966 24.0003 6.20006 24.0003C6.77046 24.0003 7.23339 24.4622 7.23339 25.0336V28.6978C7.23339 29.2693 6.77046 29.7312 6.20006 29.7312Z" fill="#A02140"/>
<path d="M6.20006 21.1833C5.62966 21.1833 5.16672 20.7214 5.16672 20.15V18.6C5.16672 18.0285 5.62966 17.5666 6.20006 17.5666H7.75006C8.32046 17.5666 8.78339 18.0285 8.78339 18.6C8.78339 19.1714 8.32046 19.6333 7.75006 19.6333H7.23339V20.15C7.23339 20.7214 6.77046 21.1833 6.20006 21.1833Z" fill="#A02140"/>
<path d="M50.2066 19.6333H47.1737C46.6033 19.6333 46.1404 19.1714 46.1404 18.6C46.1404 18.0285 46.6033 17.5666 47.1737 17.5666H50.2066C50.777 17.5666 51.2399 18.0285 51.2399 18.6C51.2399 19.1714 50.777 19.6333 50.2066 19.6333ZM43.1303 19.6333H40.0975C39.5271 19.6333 39.0641 19.1714 39.0641 18.6C39.0641 18.0285 39.5271 17.5666 40.0975 17.5666H43.1303C43.7007 17.5666 44.1636 18.0285 44.1636 18.6C44.1636 19.1714 43.7017 19.6333 43.1303 19.6333ZM36.054 19.6333H33.0212C32.4508 19.6333 31.9879 19.1714 31.9879 18.6C31.9879 18.0285 32.4508 17.5666 33.0212 17.5666H36.054C36.6244 17.5666 37.0874 18.0285 37.0874 18.6C37.0874 19.1714 36.6244 19.6333 36.054 19.6333ZM28.9778 19.6333H25.9449C25.3745 19.6333 24.9116 19.1714 24.9116 18.6C24.9116 18.0285 25.3745 17.5666 25.9449 17.5666H28.9778C29.5482 17.5666 30.0111 18.0285 30.0111 18.6C30.0111 19.1714 29.5492 19.6333 28.9778 19.6333ZM21.9025 19.6333H18.8697C18.2993 19.6333 17.8364 19.1714 17.8364 18.6C17.8364 18.0285 18.2993 17.5666 18.8697 17.5666H21.9025C22.4729 17.5666 22.9359 18.0285 22.9359 18.6C22.9359 19.1714 22.4729 19.6333 21.9025 19.6333ZM14.8263 19.6333H11.7934C11.223 19.6333 10.7601 19.1714 10.7601 18.6C10.7601 18.0285 11.223 17.5666 11.7934 17.5666H14.8263C15.3967 17.5666 15.8596 18.0285 15.8596 18.6C15.8596 19.1714 15.3967 19.6333 14.8263 19.6333Z" fill="#A02140"/>
<path d="M55.7999 21.1833C55.2295 21.1833 54.7666 20.7214 54.7666 20.15V19.6333H54.2499C53.6795 19.6333 53.2166 19.1714 53.2166 18.6C53.2166 18.0285 53.6795 17.5666 54.2499 17.5666H55.7999C56.3703 17.5666 56.8333 18.0285 56.8333 18.6V20.15C56.8333 20.7214 56.3703 21.1833 55.7999 21.1833Z" fill="#A02140"/>
<path d="M55.8 29.7321C55.2296 29.7321 54.7667 29.2702 54.7667 28.6988V25.0346C54.7667 24.4631 55.2296 24.0012 55.8 24.0012C56.3704 24.0012 56.8334 24.4631 56.8334 25.0346V28.6988C56.8334 29.2702 56.3704 29.7321 55.8 29.7321Z" fill="#A02140"/>
<path d="M55.7999 36.1667H54.2499C53.6795 36.1667 53.2166 35.7048 53.2166 35.1333C53.2166 34.5619 53.6795 34.1 54.2499 34.1H54.7666V33.5833C54.7666 33.0119 55.2295 32.55 55.7999 32.55C56.3703 32.55 56.8333 33.0119 56.8333 33.5833V35.1333C56.8333 35.7048 56.3703 36.1667 55.7999 36.1667Z" fill="#A02140"/>
<path d="M50.2066 36.1667H47.1737C46.6033 36.1667 46.1404 35.7048 46.1404 35.1334C46.1404 34.562 46.6033 34.1001 47.1737 34.1001H50.2066C50.777 34.1001 51.2399 34.562 51.2399 35.1334C51.2399 35.7048 50.777 36.1667 50.2066 36.1667ZM43.1303 36.1667H40.0975C39.5271 36.1667 39.0641 35.7048 39.0641 35.1334C39.0641 34.562 39.5271 34.1001 40.0975 34.1001H43.1303C43.7007 34.1001 44.1636 34.562 44.1636 35.1334C44.1636 35.7048 43.7017 36.1667 43.1303 36.1667ZM36.054 36.1667H33.0212C32.4508 36.1667 31.9879 35.7048 31.9879 35.1334C31.9879 34.562 32.4508 34.1001 33.0212 34.1001H36.054C36.6244 34.1001 37.0874 34.562 37.0874 35.1334C37.0874 35.7048 36.6244 36.1667 36.054 36.1667ZM28.9778 36.1667H25.9449C25.3745 36.1667 24.9116 35.7048 24.9116 35.1334C24.9116 34.562 25.3745 34.1001 25.9449 34.1001H28.9778C29.5482 34.1001 30.0111 34.562 30.0111 35.1334C30.0111 35.7048 29.5492 36.1667 28.9778 36.1667ZM21.9025 36.1667H18.8697C18.2993 36.1667 17.8364 35.7048 17.8364 35.1334C17.8364 34.562 18.2993 34.1001 18.8697 34.1001H21.9025C22.4729 34.1001 22.9359 34.562 22.9359 35.1334C22.9359 35.7048 22.4729 36.1667 21.9025 36.1667ZM14.8263 36.1667H11.7934C11.223 36.1667 10.7601 35.7048 10.7601 35.1334C10.7601 34.562 11.223 34.1001 11.7934 34.1001H14.8263C15.3967 34.1001 15.8596 34.562 15.8596 35.1334C15.8596 35.7048 15.3967 36.1667 14.8263 36.1667Z" fill="#A02140"/>
<path d="M31 31.0001C30.4296 31.0001 29.9667 30.5382 29.9667 29.9667V23.7667C29.9667 23.1953 30.4296 22.7334 31 22.7334C31.5704 22.7334 32.0333 23.1953 32.0333 23.7667V29.9667C32.0333 30.5382 31.5704 31.0001 31 31.0001Z" fill="#A02140"/>
<path d="M34.1 27.8999H27.9C27.3296 27.8999 26.8667 27.438 26.8667 26.8666C26.8667 26.2951 27.3296 25.8332 27.9 25.8332H34.1C34.6704 25.8332 35.1334 26.2951 35.1334 26.8666C35.1334 27.438 34.6704 27.8999 34.1 27.8999Z" fill="#A02140"/>
<path d="M55.8001 56.8332H6.20006C5.62966 56.8332 5.16672 56.3713 5.16672 55.7999V40.2999C5.16672 39.7285 5.62966 39.2666 6.20006 39.2666H55.8001C56.3705 39.2666 56.8334 39.7285 56.8334 40.2999V55.7999C56.8334 56.3713 56.3705 56.8332 55.8001 56.8332ZM7.23339 54.7666H54.7667V41.3332H7.23339V54.7666Z" fill="#A02140"/>
</svg>
