<svg width="140" height="140" viewBox="0 0 140 140" fill="none" xmlns="http://www.w3.org/2000/svg">
<path d="M62.8906 52.5C61.3812 52.5 60.1562 53.725 60.1562 55.2344C60.1562 56.7438 61.3812 57.9688 62.8906 57.9688C64.4 57.9688 65.625 56.7438 65.625 55.2344C65.625 53.725 64.4 52.5 62.8906 52.5Z" fill="#A02140"/>
<path d="M62.8906 85.3125C61.3812 85.3125 60.1562 86.5375 60.1562 88.0469C60.1562 89.5563 61.3812 90.7812 62.8906 90.7812C64.4 90.7812 65.625 89.5563 65.625 88.0469C65.625 86.5375 64.4 85.3125 62.8906 85.3125Z" fill="#A02140"/>
<path d="M62.8906 118.125C61.3812 118.125 60.1562 119.35 60.1562 120.859C60.1562 122.369 61.3812 123.594 62.8906 123.594C64.4 123.594 65.625 122.369 65.625 120.859C65.625 119.35 64.4 118.125 62.8906 118.125Z" fill="#A02140"/>
<path d="M115.391 47.0312C110.867 47.0312 107.188 50.7112 107.188 55.2344C107.188 59.7576 110.867 63.4375 115.391 63.4375C119.914 63.4375 123.594 59.7576 123.594 55.2344C123.594 50.7112 119.914 47.0312 115.391 47.0312ZM115.391 57.9688C113.883 57.9688 112.656 56.7421 112.656 55.2344C112.656 53.7266 113.883 52.5 115.391 52.5C116.898 52.5 118.125 53.7266 118.125 55.2344C118.125 56.7421 116.898 57.9688 115.391 57.9688Z" fill="#A02140"/>
<path d="M30.0781 52.5H19.1406C17.6307 52.5 16.4062 53.7242 16.4062 55.2344C16.4062 56.7446 17.6307 57.9688 19.1406 57.9688H30.0781C31.588 57.9688 32.8125 56.7446 32.8125 55.2344C32.8125 53.7242 31.588 52.5 30.0781 52.5Z" fill="#A02140"/>
<path d="M51.9531 52.5H41.0156C39.5057 52.5 38.2812 53.7242 38.2812 55.2344C38.2812 56.7446 39.5057 57.9688 41.0156 57.9688H51.9531C53.463 57.9688 54.6875 56.7446 54.6875 55.2344C54.6875 53.7242 53.463 52.5 51.9531 52.5Z" fill="#A02140"/>
<path d="M115.391 79.8438C110.867 79.8438 107.188 83.5237 107.188 88.0469C107.188 92.5701 110.867 96.25 115.391 96.25C119.914 96.25 123.594 92.5701 123.594 88.0469C123.594 83.5237 119.914 79.8438 115.391 79.8438ZM115.391 90.7812C113.883 90.7812 112.656 89.5546 112.656 88.0469C112.656 86.5391 113.883 85.3125 115.391 85.3125C116.898 85.3125 118.125 86.5391 118.125 88.0469C118.125 89.5546 116.898 90.7812 115.391 90.7812Z" fill="#A02140"/>
<path d="M30.0781 85.3125H19.1406C17.6307 85.3125 16.4062 86.5367 16.4062 88.0469C16.4062 89.5571 17.6307 90.7812 19.1406 90.7812H30.0781C31.588 90.7812 32.8125 89.5571 32.8125 88.0469C32.8125 86.5367 31.588 85.3125 30.0781 85.3125Z" fill="#A02140"/>
<path d="M51.9531 85.3125H41.0156C39.5057 85.3125 38.2812 86.5367 38.2812 88.0469C38.2812 89.5571 39.5057 90.7812 41.0156 90.7812H51.9531C53.463 90.7812 54.6875 89.5571 54.6875 88.0469C54.6875 86.5367 53.463 85.3125 51.9531 85.3125Z" fill="#A02140"/>
<path d="M115.391 112.656C110.867 112.656 107.188 116.336 107.188 120.859C107.188 125.383 110.867 129.062 115.391 129.062C119.914 129.062 123.594 125.383 123.594 120.859C123.594 116.336 119.914 112.656 115.391 112.656ZM115.391 123.594C113.883 123.594 112.656 122.367 112.656 120.859C112.656 119.352 113.883 118.125 115.391 118.125C116.898 118.125 118.125 119.352 118.125 120.859C118.125 122.367 116.898 123.594 115.391 123.594Z" fill="#A02140"/>
<path d="M140 42.7C140 39.8344 139.348 36.9045 138.01 34.1996L124.87 4.64762C124.853 4.60988 124.836 4.5727 124.817 4.53551C123.418 1.73797 120.606 0 117.48 0H22.5203C19.3936 0 16.5821 1.73797 15.1826 4.53551C15.1643 4.57242 15.1465 4.60988 15.1298 4.64762L1.99035 34.1996C0.7175 36.7727 0 39.6892 0 42.7V66.1719C0 68.2713 0.793516 70.1881 2.09562 71.6406C0.793516 73.0931 0 75.0099 0 77.1094V98.9844C0 101.084 0.793516 103.001 2.09562 104.453C0.793516 105.906 0 107.822 0 109.922V131.797C0 136.32 3.67992 140 8.20312 140H131.797C136.32 140 140 136.32 140 131.797V109.922C140 107.822 139.206 105.906 137.904 104.453C139.206 103.001 140 101.084 140 98.9844V77.1094C140 75.0099 139.206 73.0931 137.904 71.6406C139.206 70.1881 140 68.2713 140 66.1719V42.7ZM20.0974 6.93574C20.5715 6.02957 21.4952 5.46875 22.5203 5.46875H117.48C118.505 5.46875 119.428 6.02957 119.903 6.93574L132.867 36.0938H7.13316L20.0974 6.93574ZM134.531 131.797C134.531 133.305 133.305 134.531 131.797 134.531H8.20312C6.69539 134.531 5.46875 133.305 5.46875 131.797V109.922C5.46875 108.414 6.69539 107.188 8.20312 107.188H131.797C133.305 107.188 134.531 108.414 134.531 109.922V131.797ZM134.531 98.9844C134.531 100.492 133.305 101.719 131.797 101.719H8.20312C6.69539 101.719 5.46875 100.492 5.46875 98.9844V77.1094C5.46875 75.6016 6.69539 74.375 8.20312 74.375H131.797C133.305 74.375 134.531 75.6016 134.531 77.1094V98.9844ZM134.531 66.1719C134.531 67.6796 133.305 68.9062 131.797 68.9062H8.20312C6.69539 68.9062 5.46875 67.6796 5.46875 66.1719V42.7C5.46875 42.3196 5.49035 41.9404 5.52207 41.5625H134.478C134.51 41.9404 134.531 42.3196 134.531 42.7V66.1719Z" fill="#A02140"/>
<path d="M30.0781 118.125H19.1406C17.6307 118.125 16.4062 119.349 16.4062 120.859C16.4062 122.37 17.6307 123.594 19.1406 123.594H30.0781C31.588 123.594 32.8125 122.37 32.8125 120.859C32.8125 119.349 31.588 118.125 30.0781 118.125Z" fill="#A02140"/>
<path d="M51.9531 118.125H41.0156C39.5057 118.125 38.2812 119.349 38.2812 120.859C38.2812 122.37 39.5057 123.594 41.0156 123.594H51.9531C53.463 123.594 54.6875 122.37 54.6875 120.859C54.6875 119.349 53.463 118.125 51.9531 118.125Z" fill="#A02140"/>
</svg>
