<svg width="22" height="18" viewBox="0 0 22 18" xmlns="http://www.w3.org/2000/svg">
<path d="M1.49997 15.9999H20.5V17.9999H1.49997V15.9999ZM21.07 6.63995C20.86 5.83995 20.03 5.35995 19.23 5.57995L13.92 6.99995L7.01997 0.569946L5.08997 1.07995L9.22997 8.24995L4.25997 9.57995L2.28997 8.03995L0.839966 8.42995L3.42997 12.9199C3.42997 12.9199 10.55 11.0199 20 8.48995C20.81 8.25995 21.28 7.43995 21.07 6.63995Z"/>
</svg>
